Tidy Modelling for Nested/Panel Data • nestedmodels
…
nested_data <- tidyr::nest(example_nested_data, data = -id)

split <- nested_resamples(nested_data, rsample::initial_split())

data_tr <- rsample::training(split)
data_tst <- rsample::testing(split)

model <- parsnip::linear_reg() %>%
  nested()

fit <- fit(model, z ~ x + y + a + b, 
           tidyr::nest(data_tr, data = -id))

predict(fit, data_tst)
#> # A tibble: 260 × 1
#>    .pred
#>    <dbl>
#>  1 38.9 
#>  2 11.5 
#>  3 34.0 
#>  4 33.2 
#>  5 25.3 
#>  6 26.2 
#>  7 42.5 
#>  8  8.57
#>  9 34.7 
#> 10 49.0 
#> # … with 250 more rows
…
