…
nested_data <- tidyr::nest(example_nested_data, data = -id)

split <- nested_resamples(nested_data, rsample::initial_split())

data_tr <- rsample::training(split)
data_tst <- rsample::testing(split)

model <- parsnip::linear_reg() %>%
  nested()

fit <- fit(model, z ~ x + y + a + b, 
           tidyr::nest(data_tr, data = -id))

predict(fit, data_tst)
#> # A tibble: 260 × 1
#>    .pred
#>    <dbl>
#>  1  13.7
#>  2  56.4
#>  3  57.1
#>  4  50.1
#>  5  57.9
#>  6  35.6
#>  7  28.1
#>  8  21.1
#>  9  49.8
#> 10  20.6
#> # … with 250 more rows
```
