Create splits with nested data — nested_resamples • nestedmodels
…
nested_resamples(
  group_by(example_nested_data, id),
  ~ initial_split(.)
)
#> <Training/Testing/Total>
#> <740/260/1000>

nested_resamples(example_nested_data, bootstraps,
  times = 25, nesting_method = wf
)
#> # Bootstrap sampling 
#> # A tibble: 25 × 2
#>    splits             id         
#>    <list>             <chr>      
#>  1 <split [1000/367]> Bootstrap01
#>  2 <split [1000/378]> Bootstrap02
#>  3 <split [1000/359]> Bootstrap03
#>  4 <split [1000/384]> Bootstrap04
#>  5 <split [1000/361]> Bootstrap05
#>  6 <split [1000/376]> Bootstrap06
#>  7 <split [1000/355]> Bootstrap07
#>  8 <split [1000/382]> Bootstrap08
#>  9 <split [1000/359]> Bootstrap09
#> 10 <split [1000/355]> Bootstrap10
#> # ℹ 15 more rows
…
