Nested Model Predictions — predict.nested_model_fit • nestedmodels
…
    Examples

data("example_nested_data")

model <- parsnip::linear_reg() %>%
  parsnip::set_engine("lm") %>%
  nested()

nested_data <- tidyr::nest(example_nested_data, data = -id)

fitted <- fit(model, z ~ x + y + a + b, nested_data)

predict(fitted, example_nested_data)
#> # A tibble: 1,000 × 1
#>    .pred
#>    <dbl>
#>  1 42.0 
#>  2 42.8 
#>  3 26.4 
#>  4 38.6 
#>  5 12.4 
#>  6 51.0 
#>  7  9.84
#>  8 16.6 
#>  9 53.4 
#> 10 39.3 
#> # … with 990 more rows
…
