Nest transformation — step_nest • nestedmodels
…
    Case weights

    The underlying operation does not allow for case weights.

    Examples

recipe <- recipes::recipe(example_nested_data, z ~ x + id) %>%
  step_nest(id)

recipe %>%
  recipes::prep() %>%
  recipes::bake(NULL)
#> # A tibble: 1,000 × 3
#>        x     z nest_id
#>    <int> <dbl> <fct>  
#>  1    49  29.1 Nest 1 
#>  2    50  29.7 Nest 1 
#>  3    51  26.6 Nest 1 
#>  4    52  28.8 Nest 1 
#>  5    53  23.9 Nest 1 
#>  6    54  30.0 Nest 1 
#>  7    55  24.0 Nest 1 
#>  8    56  25.5 Nest 1 
#>  9    57  30.6 Nest 1 
#> 10    58  28.6 Nest 1 
#> # … with 990 more rows

recipe2 <- recipes::recipe(example_nested_data, z ~ x + id) %>%
  step_nest(-c(x, z))

recipe2 %>%
  recipes::prep() %>%
  recipes::bake(NULL)
#> # A tibble: 1,000 × 3
#>        x     z nest_id
#>    <int> <dbl> <fct>  
#>  1    49  29.1 Nest 1 
#>  2    50  29.7 Nest 1 
#>  3    51  26.6 Nest 1 
#>  4    52  28.8 Nest 1 
#>  5    53  23.9 Nest 1 
#>  6    54  30.0 Nest 1 
#>  7    55  24.0 Nest 1 
#>  8    56  25.5 Nest 1 
#>  9    57  30.6 Nest 1 
#> 10    58  28.6 Nest 1 
#> # … with 990 more rows
…
