nestedmodels • nestedmodels
…
How does nestedmodels work?

The implementation of nestedmodels is very simple. Fitting a nested model fits the model to each nested value (for time series about a set of stocks, a model would be fitted to each stock). The correct model will then be selected and used when making predictions.

A quick example

In this vignette, we’re going to explore the most basic example of a nested model. You’re going to need the following packages:

We’re going to use the example data included in the ‘nestedmodels’ package. The data is very simple, and only serves as an example of data that can be nested, rather than representing anything concrete.

data("example_nested_data")
data <- example_nested_data
data
#> # A tibble: 1,000 × 7
#>       id   id2     x     y     z     a     b
#>    <int> <int> <int> <dbl> <dbl> <dbl> <dbl>
#>  1     1     1    49  239. 36.0   44.7 50.0 
#>  2     1     1    50  313. 38.7   40.2 64.9 
#>  3     1     1    51 -109. 23.4   43.2 38.0 
#>  4     1     1    52  189. 34.2   66.4 61.7 
#>  5     1     1    53 -491.  9.51  18.2 -1.66
#>  6     1     1    54  339. 39.7   83.8 38.8 
#>  7     1     1    55 -486.  9.72  91.7 40.7 
#>  8     1     1    56 -284. 17.0   79.8 55.4 
#>  9     1     1    57  416. 42.5   50.3 33.8 
#> 10     1     1    58  122. 31.8   25.4 20.5 
#> # … with 990 more rows
…
Predicting can also be done in the usual way (the data to predict on can be both nested and non-nested). Since this is just a demonstration, we use the same data that the model was fitted on.

predict(model_fit, data_tst)
#> # A tibble: 260 × 1
#>    .pred
#>    <dbl>
#>  1  39.8
#>  2  15.6
#>  3  58.5
#>  4  57.9
#>  5  33.9
#>  6  16.7
#>  7  24.8
#>  8  50.9
#>  9  12.9
#> 10  38.9
#> # … with 250 more rows

This method is fine, but having to nest the data ourselves is a pain. We can solve this by using a workflow.

We first define the recipe, and we define a step which is used to nest the data. This time, the formula can include the ‘id’ column, since the recipe needs to act on it.

recipe <- recipe(data_tr, z ~ x + y + a + b + id) %>%
  step_nest(id)

This is a little easier than nesting the data manually. Note that the recipe does not actually nest the data, but instead removes the specified columns and adds a new column, ‘nest_id’, which specifies which nest each row belongs to.

recipe %>%
  prep() %>%
  bake(NULL)
#> # A tibble: 740 × 6
#>        x      y     a     b     z nest_id
#>    <int>  <dbl> <dbl> <dbl> <dbl> <fct>  
#>  1    50  313.  40.2  64.9  38.7  Nest 1 
#>  2    59 -109.  66.7  54.5  23.4  Nest 1 
#>  3    87  232.  48.8  54.7  62.0  Nest 1 
#>  4    93 -258.  95.1  90.5  -7.48 Nest 1 
#>  5    85 -192.  52.4  43.3  46.6  Nest 1 
#>  6    73 -436.  31.3   5.80 20.2  Nest 1 
#>  7    71  -78.5 65.2  25.9  33.2  Nest 1 
#>  8    81  293.   2.82 58.2  64.2  Nest 1 
#>  9    54  339.  83.8  38.8  39.7  Nest 1 
#> 10    67  490.  40.2  92.1  37.3  Nest 1 
#> # … with 730 more rows

Now we create the workflow, combining the recipe and the model.

wf <- workflow() %>%
  add_model(nested_model) %>%
  add_recipe(recipe)

A workflow can be fitted in the same way as a model, but note that since we used step_nest() the data does not have to be nested.

wf_fit <- fit(wf, data_tr)

This fit object can then be used to make predictions.

predict(wf_fit, data_tst)
#> # A tibble: 260 × 1
#>    .pred
#>    <dbl>
#>  1  39.8
#>  2  15.6
#>  3  58.5
#>  4  57.9
#>  5  33.9
#>  6  16.7
#>  7  24.8
#>  8  50.9
#>  9  12.9
#> 10  38.9
#> # … with 250 more rows

Other common parsnip functions can also be used on fitted nested models:

augment(wf_fit, data_tst)
#> # A tibble: 260 × 8
#>       id   id2     x     y     z     a     b .pred
#>    <int> <int> <int> <dbl> <dbl> <dbl> <dbl> <dbl>
#>  1     1     1    52  189.  34.2 66.4   61.7  39.8
#>  2     1     1    56 -284.  17.0 79.8   55.4  15.6
#>  3     1     1    62  488.  37.2  5.23  19.8  58.5
#>  4     1     1    64  474.  36.7 80.6   49.1  57.9
#>  5     1     1    66  158.  25.3 30.4   60.6  33.9
#>  6     1     1    69 -146.  30.7 84.9   83.8  16.7
#>  7     1     1    70 -131.  31.2  3.10  12.6  24.8
#>  8     1     1    72  309.  47.2 59.7   26.0  50.9
#>  9     1     2    77 -210.  45.9 13.8   51.9  12.9
#> 10     1     2    79  207.  61.1 57.7   53.9  38.9
#> # … with 250 more rows
tidy(wf_fit)
#> # A tibble: 100 × 4
#>    nest_id term        estimate penalty
#>    <fct>   <chr>          <dbl>   <dbl>
#>  1 Nest 1  (Intercept)  41.3        0.1
#>  2 Nest 1  x            -0.101      0.1
#>  3 Nest 1  y             0.0553     0.1
#>  4 Nest 1  a             0.0815     0.1
#>  5 Nest 1  b            -0.197      0.1
#>  6 Nest 2  (Intercept) -97.6        0.1
#>  7 Nest 2  x             0.708      0.1
#>  8 Nest 2  y             0.0310     0.1
#>  9 Nest 2  a            -0.0432     0.1
#> 10 Nest 2  b             0.106      0.1
#> # … with 90 more rows
…
